[gd_resource type="SpatialMaterial" format=2]

[resource]
resource_name = "CharacterSkin"
vertex_color_use_as_albedo = true
params_cull_mode = 2
albedo_color = Color( 1, 0.61236, 0.253243, 1 )
roughness = 0.4
