[gd_scene load_steps=5 format=2]

[ext_resource path="res://game/enemy/Enemy.gd" type="Script" id=1]
[ext_resource path="res://resources/sound/fx/16_spawn01.wav" type="AudioStream" id=2]
[ext_resource path="res://resources/models/character/character_godot.glb" type="PackedScene" id=3]

[sub_resource type="BoxShape" id=1]
extents = Vector3( 1.5, 3, 1.5 )

[node name="Enemy" type="Spatial"]
script = ExtResource( 1 )

[node name="Mesh" parent="." instance=ExtResource( 3 )]
transform = Transform( -0.15, 0, -1.31134e-08, 0, 0.15, 0, 1.31134e-08, 0, -0.15, 0, 0, 0 )

[node name="OmniLight" type="OmniLight" parent="."]
transform = Transform( 1, 0, 0, 0, 1, 0, 0, 0, 1, 0, 4, 0 )
light_energy = 5.0
light_indirect_energy = 0.0
light_specular = 0.0
shadow_enabled = true

[node name="Area" type="Area" parent="."]
monitoring = false
monitorable = false

[node name="CollisionShape" type="CollisionShape" parent="Area"]
transform = Transform( 1, 0, 0, 0, 1, 0, 0, 0, 1, 0, 3, 0 )
shape = SubResource( 1 )

[node name="SpawnSound" type="AudioStreamPlayer3D" parent="."]
stream = ExtResource( 2 )
unit_size = 2.0

[node name="NavigationAgent" type="NavigationAgent" parent="."]

[connection signal="body_entered" from="Area" to="." method="_on_Area_body_entered"]

[editable path="Mesh"]
