[gd_scene load_steps=2 format=2]

[ext_resource path="res://ui/end_game/EndGame.gd" type="Script" id=1]

[node name="EndGame" type="Control"]
anchor_right = 1.0
anchor_bottom = 1.0
script = ExtResource( 1 )

[node name="ColorRect" type="ColorRect" parent="."]
anchor_right = 1.0
anchor_bottom = 1.0
color = Color( 0, 0, 0, 1 )

[node name="Options" type="VBoxContainer" parent="."]
anchor_left = 0.5
anchor_top = 0.5
anchor_right = 0.5
anchor_bottom = 0.5
margin_left = -41.5
margin_top = 54.0
margin_right = 41.5
margin_bottom = 74.0
grow_horizontal = 2
grow_vertical = 2

[node name="ButtonExit" type="Button" parent="Options"]
margin_right = 83.0
margin_bottom = 20.0
text = "Main Menu"

[node name="Label" type="Label" parent="."]
anchor_right = 1.0
anchor_bottom = 1.0
margin_left = 20.0
margin_top = 20.0
margin_right = -20.0
margin_bottom = -80.0
text = "GAME_IS_OVER"
align = 1
valign = 1

[node name="Tween" type="Tween" parent="."]

[connection signal="pressed" from="Options/ButtonExit" to="." method="_on_ButtonExit_pressed"]
